{
  "name": "development",
  "default_attributes": {
    "java": {
      "install_flavor": "oracle",
      "jdk_version": "7",
      "java_home": "/usr/local/java",
      "oracle": {
        "accept_oracle_download_terms": true
      }
    },
    "glassfish": {
      "version": "4.1",
      "package_url": "http://download.java.net/glassfish/4.1/release/glassfish-4.1.zip",
      "base_dir": "/usr/local/glassfish",
      "domains_dir": "/usr/local/glassfish/glassfish/domains"
    }
  }
}